[
  {
    "TeamA": {
      "Name": "Barcelona",
      "ImageUrl": "https://upload.wikimedia.org/wikipedia/en/thumb/4/47/FC_Barcelona_%28crest%29.svg/1200px-FC_Barcelona_%28crest%29.svg.png"
    },
    "TeamB": {
      "Name": "Real Madrid",
      "ImageUrl": "https://upload.wikimedia.org/wikipedia/en/thumb/5/56/Real_Madrid_CF.svg/1200px-Real_Madrid_CF.svg.png"
    }
  },
  {
    "TeamA": {
      "Name": "Valencia",
      "ImageUrl": "https://logosvector.net/wp-content/uploads/2012/02/valencia-vector-logo.png"
    },
    "TeamB": {
      "Name": "Real Madrid",
      "ImageUrl": "https://upload.wikimedia.org/wikipedia/en/thumb/5/56/Real_Madrid_CF.svg/1200px-Real_Madrid_CF.svg.png"
    }
  },
  {
    "TeamA": {
      "Name": "Barcelona",
      "ImageUrl": "https://upload.wikimedia.org/wikipedia/en/thumb/4/47/FC_Barcelona_%28crest%29.svg/1200px-FC_Barcelona_%28crest%29.svg.png"
    },
    "TeamB": {
      "Name": "Valencia",
      "ImageUrl": "https://logosvector.net/wp-content/uploads/2012/02/valencia-vector-logo.png"
    }
  }
]
